…
# Get the p-value
p_value <- get_p_value(
null_distn, obs_stat,
direction = "two sided" # Not alternative = "two.sided"
)
```

Response: late (factor)
Explanatory: freight_cost_group (factor)
Null Hypothesis: independence
# A tibble: 2,000,000 × 3
# Groups:   replicate [2,000]
   late  freight_cost_group replicate
   <fct> <fct>                  <int>
 1 No    reasonable                 1
 2 No    expensive                  1
 3 No    expensive                  1
 4 Yes   expensive                  1
 5 No    reasonable                 1
 6 No    reasonable                 1
 7 No    expensive                  1
 8 No    expensive                  1
 9 No    expensive                  1
10 No    reasonable                 1
# … with 1,999,990 more rows


Response: late (factor)
Explanatory: freight_cost_group (factor)
Null Hypothesis: independence
# A tibble: 2,000 × 2
   replicate      stat
       <int>     <dbl>
 1         1 -0.0131  
 2         2  0.00303 
 3         3 -0.00502 
 4         4  0.0111  
 5         5  0.0111  
 6         6 -0.0131  
 7         7  0.00303 
 8         8  0.0191  
 9         9 -0.000995
10        10 -0.00905 
# … with 1,990 more rows
…
